# vtk DataFile Version 2.0
Example
ASCII
DATASET POLYDATA
POINTS 121 double
400 300 30
430.902 300 28.5317
458.779 300 24.2705
480.902 300 17.6336
495.106 300 9.27051
500 300 0
495.106 300 -9.27051
480.902 300 -17.6336
458.779 300 -24.2705
430.902 300 -28.5317
400 300 -30
400 300 30
425 336.327 28.5317
447.553 369.098 24.2705
465.451 395.106 17.6336
476.942 411.803 9.27051
480.902 417.557 0
476.942 411.803 -9.27051
465.451 395.106 -17.6336
447.553 369.098 -24.2705
425 336.327 -28.5317
400 300 -30
400 300 30
409.549 358.779 28.5317
418.164 411.803 24.2705
425 453.884 17.6336
429.389 480.902 9.27051
430.902 490.211 0
429.389 480.902 -9.27051
425 453.884 -17.6336
418.164 411.803 -24.2705
409.549 358.779 -28.5317
400 300 -30
400 300 30
390.451 358.779 28.5317
381.836 411.803 24.2705
375 453.884 17.6336
370.611 480.902 9.27051
369.098 490.211 0
370.611 480.902 -9.27051
375 453.884 -17.6336
381.836 411.803 -24.2705
390.451 358.779 -28.5317
400 300 -30
400 300 30
375 336.327 28.5317
352.447 369.098 24.2705
334.549 395.106 17.6336
323.058 411.803 9.27051
319.098 417.557 0
323.058 411.803 -9.27051
334.549 395.106 -17.6336
352.447 369.098 -24.2705
375 336.327 -28.5317
400 300 -30
400 300 30
369.098 300 28.5317
341.221 300 24.2705
319.098 300 17.6336
304.894 300 9.27051
300 300 0
304.894 300 -9.27051
319.098 300 -17.6336
341.221 300 -24.2705
369.098 300 -28.5317
400 300 -30
400 300 30
375 263.673 28.5317
352.447 230.902 24.2705
334.549 204.894 17.6336
323.058 188.197 9.27051
319.098 182.443 0
323.058 188.197 -9.27051
334.549 204.894 -17.6336
352.447 230.902 -24.2705
375 263.673 -28.5317
400 300 -30
400 300 30
390.451 241.221 28.5317
381.836 188.197 24.2705
375 146.116 17.6336
370.611 119.098 9.27051
369.098 109.789 0
370.611 119.098 -9.27051
375 146.116 -17.6336
381.836 188.197 -24.2705
390.451 241.221 -28.5317
400 300 -30
400 300 30
409.549 241.221 28.5317
418.164 188.197 24.2705
425 146.116 17.6336
429.389 119.098 9.27051
430.902 109.789 0
429.389 119.098 -9.27051
425 146.116 -17.6336
418.164 188.197 -24.2705
409.549 241.221 -28.5317
400 300 -30
400 300 30
425 263.673 28.5317
447.553 230.902 24.2705
465.451 204.894 17.6336
476.942 188.197 9.27051
480.902 182.443 0
476.942 188.197 -9.27051
465.451 204.894 -17.6336
447.553 230.902 -24.2705
425 263.673 -28.5317
400 300 -30
400 300 30
430.902 300 28.5317
458.779 300 24.2705
480.902 300 17.6336
495.106 300 9.27051
500 300 0
495.106 300 -9.27051
480.902 300 -17.6336
458.779 300 -24.2705
430.902 300 -28.5317
400 300 -30
POLYGONS 218 872
3 0 1 12
3 1 2 13
3 2 3 14
3 3 4 15
3 4 5 16
3 5 6 17
3 6 7 18
3 7 8 19
3 8 9 20
3 9 10 21
3 10 11 22
3 11 12 23
3 12 13 24
3 13 14 25
3 14 15 26
3 15 16 27
3 16 17 28
3 17 18 29
3 18 19 30
3 19 20 31
3 20 21 32
3 21 22 33
3 22 23 34
3 23 24 35
3 24 25 36
3 25 26 37
3 26 27 38
3 27 28 39
3 28 29 40
3 29 30 41
3 30 31 42
3 31 32 43
3 32 33 44
3 33 34 45
3 34 35 46
3 35 36 47
3 36 37 48
3 37 38 49
3 38 39 50
3 39 40 51
3 40 41 52
3 41 42 53
3 42 43 54
3 43 44 55
3 44 45 56
3 45 46 57
3 46 47 58
3 47 48 59
3 48 49 60
3 49 50 61
3 50 51 62
3 51 52 63
3 52 53 64
3 53 54 65
3 54 55 66
3 55 56 67
3 56 57 68
3 57 58 69
3 58 59 70
3 59 60 71
3 60 61 72
3 61 62 73
3 62 63 74
3 63 64 75
3 64 65 76
3 65 66 77
3 66 67 78
3 67 68 79
3 68 69 80
3 69 70 81
3 70 71 82
3 71 72 83
3 72 73 84
3 73 74 85
3 74 75 86
3 75 76 87
3 76 77 88
3 77 78 89
3 78 79 90
3 79 80 91
3 80 81 92
3 81 82 93
3 82 83 94
3 83 84 95
3 84 85 96
3 85 86 97
3 86 87 98
3 87 88 99
3 88 89 100
3 89 90 101
3 90 91 102
3 91 92 103
3 92 93 104
3 93 94 105
3 94 95 106
3 95 96 107
3 96 97 108
3 97 98 109
3 98 99 110
3 99 100 111
3 100 101 112
3 101 102 113
3 102 103 114
3 103 104 115
3 104 105 116
3 105 106 117
3 106 107 118
3 107 108 119
3 108 109 120
3 109 110 121
3 120 119 108
3 119 118 107
3 118 117 106
3 117 116 105
3 116 115 104
3 115 114 103
3 114 113 102
3 113 112 101
3 112 111 100
3 111 110 99
3 110 109 98
3 109 108 97
3 108 107 96
3 107 106 95
3 106 105 94
3 105 104 93
3 104 103 92
3 103 102 91
3 102 101 90
3 101 100 89
3 100 99 88
3 99 98 87
3 98 97 86
3 97 96 85
3 96 95 84
3 95 94 83
3 94 93 82
3 93 92 81
3 92 91 80
3 91 90 79
3 90 89 78
3 89 88 77
3 88 87 76
3 87 86 75
3 86 85 74
3 85 84 73
3 84 83 72
3 83 82 71
3 82 81 70
3 81 80 69
3 80 79 68
3 79 78 67
3 78 77 66
3 77 76 65
3 76 75 64
3 75 74 63
3 74 73 62
3 73 72 61
3 72 71 60
3 71 70 59
3 70 69 58
3 69 68 57
3 68 67 56
3 67 66 55
3 66 65 54
3 65 64 53
3 64 63 52
3 63 62 51
3 62 61 50
3 61 60 49
3 60 59 48
3 59 58 47
3 58 57 46
3 57 56 45
3 56 55 44
3 55 54 43
3 54 53 42
3 53 52 41
3 52 51 40
3 51 50 39
3 50 49 38
3 49 48 37
3 48 47 36
3 47 46 35
3 46 45 34
3 45 44 33
3 44 43 32
3 43 42 31
3 42 41 30
3 41 40 29
3 40 39 28
3 39 38 27
3 38 37 26
3 37 36 25
3 36 35 24
3 35 34 23
3 34 33 22
3 33 32 21
3 32 31 20
3 31 30 19
3 30 29 18
3 29 28 17
3 28 27 16
3 27 26 15
3 26 25 14
3 25 24 13
3 24 23 12
3 23 22 11
3 22 21 10
3 21 20 9
3 20 19 8
3 19 18 7
3 18 17 6
3 17 16 5
3 16 15 4
3 15 14 3
3 14 13 2
3 13 12 1
